%YAML 1.1
%TAG !u! tag:unity3d.com,2011:
--- !u!1001 &100100000
Prefab:
  m_ObjectHideFlags: 1
  serializedVersion: 2
  m_Modification:
    m_TransformParent: {fileID: 0}
    m_Modifications: []
    m_RemovedComponents: []
  m_ParentPrefab: {fileID: 0}
  m_RootGameObject: {fileID: 1596480012550060}
  m_IsPrefabParent: 1
--- !u!1 &1596480012550060
GameObject:
  m_ObjectHideFlags: 0
  m_PrefabParentObject: {fileID: 0}
  m_PrefabInternal: {fileID: 100100000}
  serializedVersion: 5
  m_Component:
  - component: {fileID: 4258739579517218}
  - component: {fileID: 114590845477868480}
  m_Layer: 0
  m_Name: intro_pop_up_ui_atlas
  m_TagString: Untagged
  m_Icon: {fileID: 0}
  m_NavMeshLayer: 0
  m_StaticEditorFlags: 0
  m_IsActive: 1
--- !u!4 &4258739579517218
Transform:
  m_ObjectHideFlags: 1
  m_PrefabParentObject: {fileID: 0}
  m_PrefabInternal: {fileID: 100100000}
  m_GameObject: {fileID: 1596480012550060}
  m_LocalRotation: {x: 0, y: 0, z: 0, w: 1}
  m_LocalPosition: {x: 0, y: 0, z: 0}
  m_LocalScale: {x: 1, y: 1, z: 1}
  m_Children: []
  m_Father: {fileID: 0}
  m_RootOrder: 0
  m_LocalEulerAnglesHint: {x: 0, y: 0, z: 0}
--- !u!114 &114590845477868480
MonoBehaviour:
  m_ObjectHideFlags: 1
  m_PrefabParentObject: {fileID: 0}
  m_PrefabInternal: {fileID: 100100000}
  m_GameObject: {fileID: 1596480012550060}
  m_Enabled: 1
  m_EditorHideFlags: 0
  m_Script: {fileID: 11500000, guid: 4d0c51bb0b6e93049af5e88f93826e3b, type: 3}
  m_Name: 
  m_EditorClassIdentifier: 
  material: {fileID: 2100000, guid: 2c5da93a4e1325b42b65e7b951dfe9e1, type: 2}
  sprites:
  - name: 1
    outer:
      serializedVersion: 2
      x: 0
      y: 1178
      width: 1333
      height: 870
    inner:
      serializedVersion: 2
      x: 0
      y: 1178
      width: 1333
      height: 870
    rotated: 0
    paddingLeft: 0
    paddingRight: 0
    paddingTop: 0
    paddingBottom: 0
  - name: 2
    outer:
      serializedVersion: 2
      x: 0
      y: 307
      width: 1333
      height: 870
    inner:
      serializedVersion: 2
      x: 0
      y: 307
      width: 1333
      height: 870
    rotated: 0
    paddingLeft: 0
    paddingRight: 0
    paddingTop: 0
    paddingBottom: 0
  mCoordinates: 0
  mPixelSize: 1
  mReplacement: {fileID: 0}
