%YAML 1.1
%TAG !u! tag:unity3d.com,2011:
--- !u!1001 &100100000
Prefab:
  m_ObjectHideFlags: 1
  serializedVersion: 2
  m_Modification:
    m_TransformParent: {fileID: 0}
    m_Modifications: []
    m_RemovedComponents: []
  m_ParentPrefab: {fileID: 0}
  m_RootGameObject: {fileID: 1183579630236948}
  m_IsPrefabParent: 1
--- !u!1 &1183579630236948
GameObject:
  m_ObjectHideFlags: 0
  m_PrefabParentObject: {fileID: 0}
  m_PrefabInternal: {fileID: 100100000}
  serializedVersion: 5
  m_Component:
  - component: {fileID: 4339561754763886}
  - component: {fileID: 114181438326523594}
  m_Layer: 0
  m_Name: GodoM
  m_TagString: Untagged
  m_Icon: {fileID: 0}
  m_NavMeshLayer: 0
  m_StaticEditorFlags: 0
  m_IsActive: 1
--- !u!4 &4339561754763886
Transform:
  m_ObjectHideFlags: 1
  m_PrefabParentObject: {fileID: 0}
  m_PrefabInternal: {fileID: 100100000}
  m_GameObject: {fileID: 1183579630236948}
  m_LocalRotation: {x: 0, y: 0, z: 0, w: 1}
  m_LocalPosition: {x: 0, y: 0, z: 0}
  m_LocalScale: {x: 1, y: 1, z: 1}
  m_Children: []
  m_Father: {fileID: 0}
  m_RootOrder: 0
  m_LocalEulerAnglesHint: {x: 0, y: 0, z: 0}
--- !u!114 &114181438326523594
MonoBehaviour:
  m_ObjectHideFlags: 1
  m_PrefabParentObject: {fileID: 0}
  m_PrefabInternal: {fileID: 100100000}
  m_GameObject: {fileID: 1183579630236948}
  m_Enabled: 1
  m_EditorHideFlags: 0
  m_Script: {fileID: 11500000, guid: 0b4eb3a400afab046abb8471a9d746d6, type: 3}
  m_Name: 
  m_EditorClassIdentifier: 
  mMat: {fileID: 0}
  mUVRect:
    serializedVersion: 2
    x: 0
    y: 0
    width: 1
    height: 1
  mFont:
    mSize: 0
    mBase: 0
    mWidth: 0
    mHeight: 0
    mSpriteName: 
    mSaved: []
  mSpacingX: 0
  mSpacingY: 0
  mAtlas: {fileID: 0}
  mReplacement: {fileID: 0}
  mPixelSize: 1
  mSymbols: []
  mDynamicFont: {fileID: 12800000, guid: 939c066d6376dd74aaeb6c12b9fbd357, type: 3}
  mDynamicFontSize: 50
  mDynamicFontStyle: 0
  mDynamicFontOffset: 36
