%YAML 1.1
%TAG !u! tag:unity3d.com,2011:
--- !u!1001 &100100000
Prefab:
  m_ObjectHideFlags: 1
  serializedVersion: 2
  m_Modification:
    m_TransformParent: {fileID: 0}
    m_Modifications: []
    m_RemovedComponents: []
  m_ParentPrefab: {fileID: 0}
  m_RootGameObject: {fileID: 1420261415565912}
  m_IsPrefabParent: 1
--- !u!1 &1420261415565912
GameObject:
  m_ObjectHideFlags: 0
  m_PrefabParentObject: {fileID: 0}
  m_PrefabInternal: {fileID: 100100000}
  serializedVersion: 5
  m_Component:
  - component: {fileID: 4865616192651080}
  - component: {fileID: 114434757830861452}
  m_Layer: 0
  m_Name: ingame_fail_ui_atlas
  m_TagString: Untagged
  m_Icon: {fileID: 0}
  m_NavMeshLayer: 0
  m_StaticEditorFlags: 0
  m_IsActive: 1
--- !u!4 &4865616192651080
Transform:
  m_ObjectHideFlags: 1
  m_PrefabParentObject: {fileID: 0}
  m_PrefabInternal: {fileID: 100100000}
  m_GameObject: {fileID: 1420261415565912}
  m_LocalRotation: {x: 0, y: 0, z: 0, w: 1}
  m_LocalPosition: {x: 0, y: 0, z: 0}
  m_LocalScale: {x: 1, y: 1, z: 1}
  m_Children: []
  m_Father: {fileID: 0}
  m_RootOrder: 0
  m_LocalEulerAnglesHint: {x: 0, y: 0, z: 0}
--- !u!114 &114434757830861452
MonoBehaviour:
  m_ObjectHideFlags: 1
  m_PrefabParentObject: {fileID: 0}
  m_PrefabInternal: {fileID: 100100000}
  m_GameObject: {fileID: 1420261415565912}
  m_Enabled: 1
  m_EditorHideFlags: 0
  m_Script: {fileID: 11500000, guid: 4d0c51bb0b6e93049af5e88f93826e3b, type: 3}
  m_Name: 
  m_EditorClassIdentifier: 
  material: {fileID: 2100000, guid: 7b8a157088c472542b881c2114c487cf, type: 2}
  sprites:
  - name: pop_ingame_body_gameover
    outer:
      serializedVersion: 2
      x: 0
      y: 83
      width: 59
      height: 68
    inner:
      serializedVersion: 2
      x: 0
      y: 83
      width: 59
      height: 68
    rotated: 0
    paddingLeft: 0
    paddingRight: 0
    paddingTop: 0
    paddingBottom: 0
  - name: result_txt_gameover
    outer:
      serializedVersion: 2
      x: 0
      y: 152
      width: 1097
      height: 360
    inner:
      serializedVersion: 2
      x: 0
      y: 152
      width: 1097
      height: 360
    rotated: 0
    paddingLeft: 0
    paddingRight: 0
    paddingTop: 0.055555556
    paddingBottom: 0
  mCoordinates: 0
  mPixelSize: 1
  mReplacement: {fileID: 0}
