﻿에피소드,넘버,스킨 내부명,외부명,설명
1,1,01_James,제임스씨,아내를 위한 선물.. 블러썸 백작님 제 반지를 돌려주세요..흑흑
,2,02_Police,경찰관,앙팡을 놓쳤어! 칫.. 오늘도 허탕이군!
,3,03_Unity,블러썸 백작,키시식.. 아주 예쁜 반지군. 빌린 돈의 이자 대신 이 반지를 받아 가겠다!
,4,04_SecretUnity,시크릿 백작,(땀을 흘리며) 후욱… 후욱…
,5,05_Gentleman,신사,"오늘도 아름답군요, 레이디. 차 한 잔 하시겠어요?"
,6,06_Lady,숙녀,호호호 친절한 분. 좋아요!
,7,07_Thief,좀도둑,나는 좀도둑! 부잣집 터는 것을 매우 좋아하지. 오늘도 보석을 훔쳐볼까?
,8,08_Prisoner,죄수,앞으로 10m만 더 땅을 파면 탈옥할 수 있어. 어? 이 방향이 아니었잖아?
2,1,01_Bearfursuit,곰인형탈,쳇.. 귀찮은 꼬맹이들. 풍선이나 받고 저리 가버려!
,2,02_Catfursuit,고양이 인형탈,덥다냐! 돈벌기 힘들다냐!
,3,03_Kindergartener,유치원생,(풍선을 받으며) 어휴.. 돈 벌기 참 힘들겠다.
,4,04_CoupleA,커플 A,자기야 다음엔 뭐 탈까~?
,5,05_CoupleB,커플 B,내 마음이 탈거야..♥
,6,06_Toysoldier,장난감 병정,아! 또 떨어졌다. 콧수염.
,7,07_Clockworkrobot,태엽로봇,"Console.Write("" 컴.파일.. 오류. "");"
,8,08_Fairy,길잃은 요정,여긴 어디지? 요정의 나라로 가는 길이 어딘지 아시는 분?
3,1,01_Patissier,질투의 파티쉐,찰스 녀석.. 혼자만 황금 휘핑기를 독차지하고.. 나도 저것만 있었으면…!
,2,02_Strawberrycake,딸기 케이크,"딸기, 생크림, 설탕, 달걀, 박력분, 버터…그리고 황금 휘핑기!"
,3,03_Plainbread,우유 식빵,맛있는 우유 식빵이다!
,4,04_Jambread,잼바른 식빵,잼이 발려 버렸다!
,5,05_Candy,사탕 So Sweet,뭘 봐. 나한테 관심있어? 내가 너무 달콤해서 눈을 뗄 수가 없니?
,6,06_Gingerbread,진저 쿠키,으아아아악아아꺄아아앆아아아아아!!!!뜨으거어어어어어!!!!!!
,7,07_Donut,도넛 앙팡,도넛! 너무 맛있어서 멈출 수가 없어!!
,8,08_WW,공장주인,한 가지는 확실합니다. 케이크가 인생보다 더 달콤하다는 것.
etc,1,00_pc_map,괴도 앙팡,내 이름은 앙팡! 마술을 이용해서 어려운 사람들을 돕고 있지. 
,2,02_Rainbow,무지개,아아.. 영롱해.. 정말 아름다운 옷이다! 역시 하이폴리곤 시티의 최고 장인이야.
,3,03_We,야간작업생,불이 꺼지지 않는 309호에서.. 우리는.. 오늘도.. 작업을… 한다………
,4,04_JJP,Prof.J,이 팀 AD 당장 튀어 나와!
,5,05_YDH,Prof.Y,포기하지 않으면 언젠가 목표를 이루게 될거야.
,6,06_Amazonparrot,아마존 앵무새,안녕 난 말을 할줄 아는 앵무새야.
,7,07_Fullmoonlady,만월의 한복숙녀,"만월이 뜬 밤, 한복을 곱게 차려 입은 숙녀랍니다."
,8,08_Fullmoonman,만월의 한복신사,"만월이 뜬 밤, 한복을 곱게 차려 입은 신사랍니다."
Halloween,1,01_JackOlantern,펌킨맨,Trick or Treat!
,2,02_Dracula,드라큘라,츄릅~ 츕츕츕.. 역시 딸기 주스는 최고야.
,3,03_Frankenstein,프랑켄슈타인,"나는, 아프다, 마음이, 보았을 때, 부터. 그녀를."
,4,04_Ghost,유령,오…. 혹시 내가 보이는 거니?
,5,05_Witch,마녀,건방진 앙팡 녀석! 내 묘약을 훔쳐가?? 골탕 좀 먹어봐라!
,6,06_Skeleton,해골,(뼈그덕).. 요즘 뼈가 좀 시리단 말이야..
,7,07_Czombie,강시,콩~콩~
,8,08_Angel,천사,도둑질은 나쁜 행동입니다! 하지만 앙팡님은..(발그레..)
